A {fun} Intro to R Programming
…
```r
penguins_raw <- read_csv("https://raw.githubusercontent.com/allisonhorst/palmerpenguins/master/inst/extdata/penguins_raw.csv")
```

---

## Palmer Penguins

```r
penguins_raw
```

```
#> # A tibble: 344 x 17
#>    studyName `Sample Number` Species Region Island Stage `Individual ID`
#>    <chr>               <dbl> <chr>   <chr>  <chr>  <chr> <chr>          
#>  1 PAL0708                 1 Adelie~ Anvers Torge~ Adul~ N1A1           
#>  2 PAL0708                 2 Adelie~ Anvers Torge~ Adul~ N1A2           
#>  3 PAL0708                 3 Adelie~ Anvers Torge~ Adul~ N2A1           
#>  4 PAL0708                 4 Adelie~ Anvers Torge~ Adul~ N2A2           
#>  5 PAL0708                 5 Adelie~ Anvers Torge~ Adul~ N3A1           
#>  6 PAL0708                 6 Adelie~ Anvers Torge~ Adul~ N3A2           
#>  7 PAL0708                 7 Adelie~ Anvers Torge~ Adul~ N4A1           
#>  8 PAL0708                 8 Adelie~ Anvers Torge~ Adul~ N4A2           
#>  9 PAL0708                 9 Adelie~ Anvers Torge~ Adul~ N5A1           
#> 10 PAL0708                10 Adelie~ Anvers Torge~ Adul~ N5A2           
#> # ... with 334 more rows, and 10 more variables: `Clutch Completion` <chr>,
#> #   `Date Egg` <date>, `Culmen Length (mm)` <dbl>, `Culmen Depth (mm)` <dbl>,
#> #   `Flipper Length (mm)` <dbl>, `Body Mass (g)` <dbl>, Sex <chr>, `Delta 15 N
#> #   (o/oo)` <dbl>, `Delta 13 C (o/oo)` <dbl>, Comments <chr>
```
…
Here we only keep `individual_id`, `sex` and `species`.

```r
select(penguins_clean, individual_id, sex, species)
```

```
#> # A tibble: 344 x 3
#>    individual_id sex    species                            
#>    <chr>         <chr>  <chr>                              
#>  1 N1A1          MALE   Adelie Penguin (Pygoscelis adeliae)
#>  2 N1A2          FEMALE Adelie Penguin (Pygoscelis adeliae)
#>  3 N2A1          FEMALE Adelie Penguin (Pygoscelis adeliae)
#>  4 N2A2          <NA>   Adelie Penguin (Pygoscelis adeliae)
#>  5 N3A1          FEMALE Adelie Penguin (Pygoscelis adeliae)
#>  6 N3A2          MALE   Adelie Penguin (Pygoscelis adeliae)
#>  7 N4A1          FEMALE Adelie Penguin (Pygoscelis adeliae)
#>  8 N4A2          MALE   Adelie Penguin (Pygoscelis adeliae)
#>  9 N5A1          <NA>   Adelie Penguin (Pygoscelis adeliae)
#> 10 N5A2          <NA>   Adelie Penguin (Pygoscelis adeliae)
#> # ... with 334 more rows
```
…
Here we only keep penguins from the Island `Dream`.

```r
filter(penguins_clean, island == "Dream")
```

```
#> # A tibble: 124 x 15
#>    study_name sample_number species island individual_id clutch_completi~
#>    <chr>              <dbl> <chr>   <chr>  <chr>         <chr>           
#>  1 PAL0708               31 Adelie~ Dream  N21A1         Yes             
#>  2 PAL0708               32 Adelie~ Dream  N21A2         Yes             
#>  3 PAL0708               33 Adelie~ Dream  N22A1         Yes             
#>  4 PAL0708               34 Adelie~ Dream  N22A2         Yes             
#>  5 PAL0708               35 Adelie~ Dream  N23A1         Yes             
#>  6 PAL0708               36 Adelie~ Dream  N23A2         Yes             
#>  7 PAL0708               37 Adelie~ Dream  N24A1         Yes             
#>  8 PAL0708               38 Adelie~ Dream  N24A2         Yes             
#>  9 PAL0708               39 Adelie~ Dream  N25A1         No              
#> 10 PAL0708               40 Adelie~ Dream  N25A2         No              
#> # ... with 114 more rows, and 9 more variables: date_egg <date>,
#> #   culmen_length_mm <dbl>, culmen_depth_mm <dbl>, flipper_length_mm <dbl>,
#> #   body_mass_g <dbl>, sex <chr>, delta_15_n_o_oo <dbl>, delta_13_c_o_oo <dbl>,
#> #   comments <chr>
```

---

## `filter()`

Here the **`%in%`** operator can come in handy again if we want to filter more than one island:

```r
islands_to_keep <- c("Dream", "Biscoe")

filter(penguins_clean, island %in% islands_to_keep)
```

```
#> # A tibble: 292 x 15
#>    study_name sample_number species island individual_id clutch_completi~
#>    <chr>              <dbl> <chr>   <chr>  <chr>         <chr>           
#>  1 PAL0708               21 Adelie~ Biscoe N11A1         Yes             
#>  2 PAL0708               22 Adelie~ Biscoe N11A2         Yes             
#>  3 PAL0708               23 Adelie~ Biscoe N12A1         Yes             
#>  4 PAL0708               24 Adelie~ Biscoe N12A2         Yes             
#>  5 PAL0708               25 Adelie~ Biscoe N13A1         Yes             
#>  6 PAL0708               26 Adelie~ Biscoe N13A2         Yes             
#>  7 PAL0708               27 Adelie~ Biscoe N17A1         Yes             
#>  8 PAL0708               28 Adelie~ Biscoe N17A2         Yes             
#>  9 PAL0708               29 Adelie~ Biscoe N18A1         No              
#> 10 PAL0708               30 Adelie~ Biscoe N18A2         No              
#> # ... with 282 more rows, and 9 more variables: date_egg <date>,
#> #   culmen_length_mm <dbl>, culmen_depth_mm <dbl>, flipper_length_mm <dbl>,
#> #   body_mass_g <dbl>, sex <chr>, delta_15_n_o_oo <dbl>, delta_13_c_o_oo <dbl>,
#> #   comments <chr>
```
…
Let's say we want to calculate penguin bodymass in kg rather than gram.

```r
pg_new <- mutate(penguins_clean, bodymass_kg = body_mass_g/1000)
```

```r
select(pg_new, bodymass_kg, body_mass_g)
```

```
#> # A tibble: 344 x 2
#>    bodymass_kg body_mass_g
#>          <dbl>       <dbl>
#>  1        3.75        3750
#>  2        3.8         3800
#>  3        3.25        3250
#>  4       NA             NA
#>  5        3.45        3450
#>  6        3.65        3650
#>  7        3.62        3625
#>  8        4.68        4675
#>  9        3.48        3475
#> 10        4.25        4250
#> # ... with 334 more rows
```
…
helps you rename variables

---

## `rename()`

Just changes the variable name but leaves all else intact:

```r
rename(penguins_clean, sample = sample_number)
```

```
#> # A tibble: 344 x 15
#>    study_name sample species island individual_id clutch_completi~ date_egg  
#>    <chr>       <dbl> <chr>   <chr>  <chr>         <chr>            <date>    
#>  1 PAL0708         1 Adelie~ Torge~ N1A1          Yes              2007-11-11
#>  2 PAL0708         2 Adelie~ Torge~ N1A2          Yes              2007-11-11
#>  3 PAL0708         3 Adelie~ Torge~ N2A1          Yes              2007-11-16
#>  4 PAL0708         4 Adelie~ Torge~ N2A2          Yes              2007-11-16
#>  5 PAL0708         5 Adelie~ Torge~ N3A1          Yes              2007-11-16
#>  6 PAL0708         6 Adelie~ Torge~ N3A2          Yes              2007-11-16
#>  7 PAL0708         7 Adelie~ Torge~ N4A1          No               2007-11-15
#>  8 PAL0708         8 Adelie~ Torge~ N4A2          No               2007-11-15
#>  9 PAL0708         9 Adelie~ Torge~ N5A1          Yes              2007-11-09
#> 10 PAL0708        10 Adelie~ Torge~ N5A2          Yes              2007-11-09
#> # ... with 334 more rows, and 8 more variables: culmen_length_mm <dbl>,
#> #   culmen_depth_mm <dbl>, flipper_length_mm <dbl>, body_mass_g <dbl>,
#> #   sex <chr>, delta_15_n_o_oo <dbl>, delta_13_c_o_oo <dbl>, comments <chr>
```
…
---

## The `%>%` operator

Now this works but the problem is: we have to write a lot of code that repeats itself!

```r
pg
```

```
#> # A tibble: 124 x 4
#>    id    island body_mass_g bodymass_kg
#>    <chr> <chr>        <dbl>       <dbl>
#>  1 N21A1 Dream         3250        3.25
#>  2 N21A2 Dream         3900        3.9 
#>  3 N22A1 Dream         3300        3.3 
#>  4 N22A2 Dream         3900        3.9 
#>  5 N23A1 Dream         3325        3.32
#>  6 N23A2 Dream         4150        4.15
#>  7 N24A1 Dream         3950        3.95
#>  8 N24A2 Dream         3550        3.55
#>  9 N25A1 Dream         3300        3.3 
#> 10 N25A2 Dream         4650        4.65
#> # ... with 114 more rows
```

---

## The `%>%` operator

Another alternative is to *nest all the functions*:

```r
rename(mutate(filter(select(penguins_clean, individual_id, island, body_mass_g), island == "Dream"), bodymass_kg = body_mass_g/1000), id = individual_id)
```

```
#> # A tibble: 124 x 4
#>    id    island body_mass_g bodymass_kg
#>    <chr> <chr>        <dbl>       <dbl>
#>  1 N21A1 Dream         3250        3.25
#>  2 N21A2 Dream         3900        3.9 
#>  3 N22A1 Dream         3300        3.3 
#>  4 N22A2 Dream         3900        3.9 
#>  5 N23A1 Dream         3325        3.32
#>  6 N23A2 Dream         4150        4.15
#>  7 N24A1 Dream         3950        3.95
#>  8 N24A2 Dream         3550        3.55
#>  9 N25A1 Dream         3300        3.3 
#> 10 N25A2 Dream         4650        4.65
#> # ... with 114 more rows
```
…
*The piping style*: 

Read from top to bottom and from left to right and the `%>%` as "and then".

```r
penguins_clean %>% 
  select(individual_id, island, body_mass_g) %>% 
  filter(island == "Dream") %>% 
  mutate(bodymass_kg = body_mass_g/1000) %>% 
  rename(id = individual_id)
```

```
#> # A tibble: 124 x 4
#>    id    island body_mass_g bodymass_kg
#>    <chr> <chr>        <dbl>       <dbl>
#>  1 N21A1 Dream         3250        3.25
#>  2 N21A2 Dream         3900        3.9 
#>  3 N22A1 Dream         3300        3.3 
#>  4 N22A2 Dream         3900        3.9 
#>  5 N23A1 Dream         3325        3.32
#>  6 N23A2 Dream         4150        4.15
#>  7 N24A1 Dream         3950        3.95
#>  8 N24A2 Dream         3550        3.55
#>  9 N25A1 Dream         3300        3.3 
#> 10 N25A2 Dream         4650        4.65
#> # ... with 114 more rows
```
…
